<?xml version="1.0" encoding="UTF-8" standalone="no"?>
<!-- Generator: Adobe Illustrator 16.0.0, SVG Export Plug-In . SVG Version: 6.00 Build 0)  -->

<svg
   xmlns:dc="http://purl.org/dc/elements/1.1/"
   xmlns:cc="http://creativecommons.org/ns#"
   xmlns:rdf="http://www.w3.org/1999/02/22-rdf-syntax-ns#"
   xmlns:svg="http://www.w3.org/2000/svg"
   xmlns="http://www.w3.org/2000/svg"
   xmlns:sodipodi="http://sodipodi.sourceforge.net/DTD/sodipodi-0.dtd"
   xmlns:inkscape="http://www.inkscape.org/namespaces/inkscape"
   version="1.1"
   x="0px"
   y="0px"
   width="375"
   height="83"
   viewBox="0 0 374.99999 82.999996"
   enable-background="new 0 0 841.89 595.28"
   xml:space="preserve"
   id="svg41"
   sodipodi:docname="UP_orange_med_svart_text.svg"
   inkscape:version="0.92.4 5da689c313, 2019-01-14"><metadata
   id="metadata47"><rdf:RDF><cc:Work
       rdf:about=""><dc:format>image/svg+xml</dc:format><dc:type
         rdf:resource="http://purl.org/dc/dcmitype/StillImage" /><dc:title></dc:title></cc:Work></rdf:RDF></metadata><defs
   id="defs45">
	
	
</defs><sodipodi:namedview
   pagecolor="#ffffff"
   bordercolor="#666666"
   borderopacity="1"
   objecttolerance="10"
   gridtolerance="10000"
   guidetolerance="20"
   inkscape:pageopacity="0"
   inkscape:pageshadow="2"
   inkscape:window-width="2560"
   inkscape:window-height="1406"
   id="namedview43"
   showgrid="false"
   inkscape:zoom="2.8284271"
   inkscape:cx="131.94631"
   inkscape:cy="16.823066"
   inkscape:window-x="0"
   inkscape:window-y="0"
   inkscape:window-maximized="1"
   inkscape:current-layer="svg41"
   inkscape:measure-start="56.9304,283.588"
   inkscape:measure-end="411.814,283.588"
   inkscape:snap-perpendicular="true"
   inkscape:snap-tangential="true"
   showguides="false"
   inkscape:object-nodes="false"><inkscape:grid
     type="xygrid"
     id="grid5645"
     spacingx="3.9999999"
     spacingy="3.9999999" /></sodipodi:namedview>
<circle
   style="opacity:1;fill:#ffffff;fill-opacity:1;stroke-width:1.05442953"
   id="path5649"
   cx="176.30003"
   cy="41.050262"
   r="37" /><g
   id="guides"
   transform="translate(0,-512.28003)">
</g>
<g
   id="luft_runt_logga"
   transform="translate(0,-512.28003)">
	<rect
   x="155.466"
   y="216.662"
   width="529.62701"
   height="156.41901"
   id="rect3"
   style="fill:none" />
</g>
<g
   id="g10"
   inkscape:export-xdpi="317.54688"
   inkscape:export-ydpi="317.54688"
   transform="matrix(1.0331431,0,0,1.0256334,-66.941977,-261.00157)"
   style="fill:#f28903;fill-opacity:1">
		<path
   style="fill:#f28903;fill-opacity:1"
   inkscape:connector-curvature="0"
   id="path6"
   d="m 226.28,308.075 c -8.341,5.3 -4.596,16.505 -4.596,16.505 0,0 -5.044,-10.5 -1.515,-17.346 v -32.868 c -1.451,-0.094 -2.665,0.006 -3.425,0.229 -0.216,-0.474 1.112,-1.209 3.425,-1.919 v -6.325 h 3.392 v 5.468 c 12.24,-2.554 36.638,-2.68 36.767,18.626 0.089,15.043 -26.371,12.752 -34.048,17.63 m 9.053,-51.935 c -21.338,0 -38.636,17.425 -38.636,38.919 0,21.494 17.298,38.918 38.636,38.918 21.338,0 38.635,-17.424 38.635,-38.918 -0.001,-21.494 -17.298,-38.919 -38.635,-38.919" />
		<path
   style="fill:#f28903;fill-opacity:1"
   inkscape:connector-curvature="0"
   id="path8"
   d="m 223.56,274.891 v 28.678 c 3.584,-2.449 9.732,-5.411 10.922,-11.079 2.389,-11.386 -4.802,-16.115 -10.922,-17.599" />
	</g>
<g
   aria-label="PIRAT"
   transform="translate(-90.618593,-273.88746)"
   style="font-style:normal;font-weight:normal;font-size:40px;line-height:1.25;font-family:sans-serif;letter-spacing:0px;word-spacing:0px;opacity:1;fill:#000000;fill-opacity:1;stroke:none"
   id="flowRoot66"><path
     sodipodi:type="inkscape:offset"
     inkscape:radius="0"
     inkscape:original="M 326.74023 295.59766 L 326.74023 335.5957 L 329.65039 335.5957 L 329.65039 319.48242 L 337.08594 319.48242 C 339.27189 319.48242 341.23965 319.1916 342.99219 318.60742 C 344.74472 318.0044 346.2341 317.17443 347.45898 316.11914 C 348.68388 315.04501 349.6256 313.7726 350.28516 312.30273 C 350.94471 310.83287 351.27539 309.22324 351.27539 307.4707 C 351.27539 303.66412 350.07879 300.73373 347.68555 298.67969 C 345.31115 296.62565 341.7782 295.59766 337.08594 295.59766 L 326.74023 295.59766 z M 358.32227 295.59766 L 358.32227 335.5957 L 361.23438 335.5957 L 361.23438 295.59766 L 358.32227 295.59766 z M 371.9082 295.59766 L 371.9082 335.5957 L 374.82031 335.5957 L 374.82031 317.50391 L 380.04883 317.50391 C 380.44456 317.50391 380.77524 317.52288 381.03906 317.56055 C 381.32173 317.59823 381.55765 317.66554 381.74609 317.75977 C 381.95338 317.83514 382.13245 317.9469 382.2832 318.09766 C 382.4528 318.24841 382.61291 318.42748 382.76367 318.63477 L 395.5957 334.86133 C 395.78415 335.14399 395.98217 335.34006 396.18945 335.45312 C 396.41559 335.54735 396.68941 335.5957 397.00977 335.5957 L 399.49609 335.5957 L 385.73047 318.29688 C 385.37242 317.82577 384.96789 317.44868 384.51562 317.16602 C 386.26816 316.95872 387.84184 316.55224 389.23633 315.94922 C 390.64966 315.3462 391.84626 314.57504 392.82617 313.63281 C 393.82493 312.67175 394.58759 311.55945 395.11523 310.29688 C 395.64288 309.03429 395.90625 307.63968 395.90625 306.11328 C 395.90625 302.66475 394.75801 300.05458 392.45898 298.2832 C 390.17881 296.49298 386.73867 295.59766 382.14062 295.59766 L 371.9082 295.59766 z M 416.3418 295.59766 L 399.97461 335.5957 L 402.17969 335.5957 C 402.44351 335.5957 402.67093 335.51989 402.85938 335.36914 C 403.04781 335.21839 403.17853 335.03932 403.25391 334.83203 L 407.94727 323.21484 L 427.5918 323.21484 L 432.2832 334.83203 C 432.37742 335.05816 432.51009 335.24768 432.67969 335.39844 C 432.84929 335.53034 433.06625 335.5957 433.33008 335.5957 L 435.5625 335.5957 L 419.19727 295.59766 L 416.3418 295.59766 z M 432.08594 295.59766 L 432.08594 298.05664 L 446.21875 298.05664 L 446.21875 335.5957 L 449.13086 335.5957 L 449.13086 298.05664 L 463.17773 298.05664 L 463.17773 295.59766 L 432.08594 295.59766 z M 329.65039 297.88672 L 337.08594 297.88672 C 340.83598 297.88672 343.65266 298.71669 345.53711 300.375 C 347.42156 302.03331 348.36328 304.39906 348.36328 307.4707 C 348.36328 308.86519 348.09991 310.1546 347.57227 311.3418 C 347.06347 312.51016 346.31976 313.52769 345.33984 314.39453 C 344.37878 315.26138 343.20113 315.93973 341.80664 316.42969 C 340.41215 316.91965 338.83847 317.16602 337.08594 317.16602 L 329.65039 317.16602 L 329.65039 297.88672 z M 374.82031 297.88672 L 382.14062 297.88672 C 385.70222 297.88672 388.40715 298.57553 390.25391 299.95117 C 392.11951 301.32682 393.05273 303.43769 393.05273 306.2832 C 393.05273 307.67769 392.79786 308.93114 392.28906 310.04297 C 391.78026 311.15479 391.03655 312.10502 390.05664 312.89648 C 389.09557 313.68795 387.90747 314.30095 386.49414 314.73438 C 385.09965 315.14896 383.51747 315.35742 381.74609 315.35742 L 374.82031 315.35742 L 374.82031 297.88672 z M 417.75586 298.48047 C 418.01969 299.40384 418.29155 300.19591 418.57422 300.85547 L 426.71484 321.06641 L 408.82227 321.06641 L 416.96289 300.88477 C 417.11364 300.54557 417.25481 300.17698 417.38672 299.78125 C 417.51863 299.36668 417.64279 298.93274 417.75586 298.48047 z "
     style="font-style:normal;font-variant:normal;font-weight:300;font-stretch:normal;font-size:56.53333664px;line-height:37.79527664px;font-family:Lato;-inkscape-font-specification:'Lato, Light';font-variant-ligatures:normal;font-variant-caps:normal;font-variant-numeric:normal;font-feature-settings:normal;text-align:start;letter-spacing:-1.10000002px;writing-mode:lr-tb;text-anchor:start;fill:#000000;fill-opacity:1"
     id="path845"
     d="m 326.74023,295.59766 v 39.99804 h 2.91016 v -16.11328 h 7.43555 c 2.18595,0 4.15371,-0.29082 5.90625,-0.875 1.75253,-0.60302 3.24191,-1.43299 4.46679,-2.48828 1.2249,-1.07413 2.16662,-2.34654 2.82618,-3.81641 0.65955,-1.46986 0.99023,-3.07949 0.99023,-4.83203 0,-3.80658 -1.1966,-6.73697 -3.58984,-8.79101 -2.3744,-2.05404 -5.90735,-3.08203 -10.59961,-3.08203 z m 31.58204,0 v 39.99804 h 2.91211 v -39.99804 z m 13.58593,0 v 39.99804 h 2.91211 v -18.09179 h 5.22852 c 0.39573,0 0.72641,0.019 0.99023,0.0566 0.28267,0.0377 0.51859,0.10499 0.70703,0.19922 0.20729,0.0754 0.38636,0.18713 0.53711,0.33789 0.1696,0.15075 0.32971,0.32982 0.48047,0.53711 l 12.83203,16.22656 c 0.18845,0.28266 0.38647,0.47873 0.59375,0.59179 0.22614,0.0942 0.49996,0.14258 0.82032,0.14258 h 2.48632 l -13.76562,-17.29882 c -0.35805,-0.47111 -0.76258,-0.8482 -1.21485,-1.13086 1.75254,-0.2073 3.32622,-0.61378 4.72071,-1.2168 1.41333,-0.60302 2.60993,-1.37418 3.58984,-2.31641 0.99876,-0.96106 1.76142,-2.07336 2.28906,-3.33593 0.52765,-1.26259 0.79102,-2.6572 0.79102,-4.1836 0,-3.44853 -1.14824,-6.0587 -3.44727,-7.83008 -2.28017,-1.79022 -5.72031,-2.68554 -10.31836,-2.68554 z m 44.4336,0 -16.36719,39.99804 h 2.20508 c 0.26382,0 0.49124,-0.0758 0.67969,-0.22656 0.18843,-0.15075 0.31915,-0.32982 0.39453,-0.53711 l 4.69336,-11.61719 h 19.64453 l 4.6914,11.61719 c 0.0942,0.22613 0.22689,0.41565 0.39649,0.56641 0.1696,0.1319 0.38656,0.19726 0.65039,0.19726 h 2.23242 l -16.36523,-39.99804 z m 15.74414,0 v 2.45898 h 14.13281 v 37.53906 h 2.91211 v -37.53906 h 14.04687 v -2.45898 z m -102.43555,2.28906 h 7.43555 c 3.75004,0 6.56672,0.82997 8.45117,2.48828 1.88445,1.65831 2.82617,4.02406 2.82617,7.0957 0,1.39449 -0.26337,2.6839 -0.79101,3.8711 -0.5088,1.16836 -1.25251,2.18589 -2.23243,3.05273 -0.96106,0.86685 -2.13871,1.5452 -3.5332,2.03516 -1.39449,0.48996 -2.96817,0.73633 -4.7207,0.73633 h -7.43555 z m 45.16992,0 h 7.32031 c 3.5616,0 6.26653,0.68881 8.11329,2.06445 1.8656,1.37565 2.79882,3.48652 2.79882,6.33203 0,1.39449 -0.25487,2.64794 -0.76367,3.75977 -0.5088,1.11182 -1.25251,2.06205 -2.23242,2.85351 -0.96107,0.79147 -2.14917,1.40447 -3.5625,1.8379 -1.39449,0.41458 -2.97667,0.62304 -4.74805,0.62304 h -6.92578 z m 42.93555,0.59375 c 0.26383,0.92337 0.53569,1.71544 0.81836,2.375 l 8.14062,20.21094 h -17.89257 l 8.14062,-20.18164 c 0.15075,-0.3392 0.29192,-0.70779 0.42383,-1.10352 0.13191,-0.41457 0.25607,-0.84851 0.36914,-1.30078 z" /></g><g
   aria-label="UNG"
   transform="translate(-324.17331,-273.89581)"
   style="font-style:normal;font-weight:normal;font-size:40px;line-height:1.25;font-family:sans-serif;letter-spacing:0px;word-spacing:0px;fill:#000000;fill-opacity:1;stroke:none"
   id="flowRoot66-9"><path
     sodipodi:type="inkscape:offset"
     inkscape:radius="0"
     inkscape:original="M 425.81445 295.14648 C 422.72397 295.14648 419.94519 295.63532 417.47656 296.61523 C 415.00794 297.5763 412.89706 298.95197 411.14453 300.74219 C 409.41084 302.51357 408.07309 304.66235 407.13086 307.1875 C 406.20749 309.69381 405.74609 312.49154 405.74609 315.58203 C 405.74609 318.67252 406.21598 321.48071 407.1582 324.00586 C 408.11927 326.53101 409.48643 328.68829 411.25781 330.47852 C 413.04803 332.24989 415.20532 333.62556 417.73047 334.60547 C 420.25563 335.56654 423.10171 336.04688 426.26758 336.04688 C 429.09424 336.04688 431.6371 335.6698 433.89844 334.91602 C 436.15977 334.16224 438.2896 333.07935 440.28711 331.66602 L 440.28711 317.44727 L 429.26367 317.44727 L 429.26367 319.03125 C 429.26367 319.20085 429.32902 319.35052 429.46094 319.48242 C 429.61169 319.61434 429.79075 319.68164 429.99805 319.68164 L 437.6582 319.68164 L 437.6582 330.45117 C 436.77252 330.95997 435.89614 331.42136 435.0293 331.83594 C 434.1813 332.23167 433.29642 332.57085 432.37305 332.85352 C 431.46851 333.11734 430.50783 333.32386 429.49023 333.47461 C 428.49147 333.62537 427.39814 333.70117 426.21094 333.70117 C 423.49734 333.70117 421.05578 333.28619 418.88867 332.45703 C 416.72156 331.62788 414.87601 330.43127 413.34961 328.86719 C 411.84206 327.30309 410.68336 325.40069 409.87305 323.1582 C 409.08158 320.91572 408.68555 318.38986 408.68555 315.58203 C 408.68555 312.8119 409.08158 310.31544 409.87305 308.0918 C 410.68336 305.86815 411.8231 303.9847 413.29297 302.43945 C 414.78168 300.89421 416.57233 299.70611 418.66406 298.87695 C 420.77464 298.0478 423.12994 297.63281 425.73047 297.63281 C 427.69029 297.63281 429.34828 297.81188 430.70508 298.16992 C 432.08072 298.52797 433.23092 298.93445 434.1543 299.38672 C 435.07767 299.83899 435.80243 300.27097 436.33008 300.68555 C 436.85772 301.10012 437.26226 301.3635 437.54492 301.47656 C 438.07256 301.72154 438.4686 301.61828 438.73242 301.16602 L 439.52344 299.92188 C 438.63775 299.14925 437.71497 298.47089 436.75391 297.88672 C 435.79284 297.28369 434.75635 296.78441 433.64453 296.38867 C 432.5327 295.9741 431.32761 295.66432 430.02734 295.45703 C 428.74592 295.24974 427.34085 295.14648 425.81445 295.14648 z M 326.23047 295.59766 L 326.23047 320.33203 C 326.23047 322.53683 326.5801 324.59935 327.27734 326.52148 C 327.97459 328.42478 328.97317 330.09322 330.27344 331.52539 C 331.59255 332.93872 333.18518 334.05101 335.05078 334.86133 C 336.93522 335.67164 339.0461 336.07617 341.38281 336.07617 C 343.71953 336.07617 345.81995 335.67164 347.68555 334.86133 C 349.56999 334.05101 351.16262 332.93872 352.46289 331.52539 C 353.782 330.09322 354.78908 328.42478 355.48633 326.52148 C 356.18357 324.59935 356.5332 322.53683 356.5332 320.33203 L 356.5332 295.59766 L 353.65039 295.59766 L 353.65039 320.33203 C 353.65039 322.19763 353.36611 323.93992 352.80078 325.56055 C 352.25429 327.16232 351.45372 328.55694 350.39844 329.74414 C 349.34314 330.93134 348.05374 331.86457 346.52734 332.54297 C 345.01979 333.20253 343.30495 333.53125 341.38281 333.53125 C 339.46068 333.53125 337.73538 333.19207 336.20898 332.51367 C 334.70143 331.83527 333.42053 330.904 332.36523 329.7168 C 331.32879 328.5296 330.52822 327.13498 329.96289 325.5332 C 329.4164 323.91258 329.14258 322.16833 329.14258 320.30273 L 329.14258 295.59766 L 326.23047 295.59766 z M 366.71484 295.59766 L 366.71484 335.5957 L 369.25781 335.5957 L 369.25781 301.92969 C 369.25781 301.42089 369.23036 300.88369 369.17383 300.31836 L 395.15039 335.0293 C 395.30114 335.23658 395.45276 335.3882 395.60352 335.48242 C 395.77312 335.5578 395.97963 335.5957 396.22461 335.5957 L 397.58203 335.5957 L 397.58203 295.59766 L 395.06641 295.59766 L 395.06641 329.15039 C 395.06641 329.65919 395.09386 330.19639 395.15039 330.76172 L 369.23047 296.13477 C 369.06087 295.90863 368.90075 295.76747 368.75 295.71094 C 368.61809 295.63556 368.42007 295.59766 368.15625 295.59766 L 366.71484 295.59766 z "
     style="font-style:normal;font-variant:normal;font-weight:300;font-stretch:normal;font-size:56.53333664px;line-height:37.79527664px;font-family:Lato;-inkscape-font-specification:'Lato, Light';font-variant-ligatures:normal;font-variant-caps:normal;font-variant-numeric:normal;font-feature-settings:normal;text-align:start;letter-spacing:-1.10000002px;writing-mode:lr-tb;text-anchor:start;fill:#000000;fill-opacity:1"
     id="path831"
     d="m 425.81445,295.14648 c -3.09048,0 -5.86926,0.48884 -8.33789,1.46875 -2.46862,0.96107 -4.5795,2.33674 -6.33203,4.12696 -1.73369,1.77138 -3.07144,3.92016 -4.01367,6.44531 -0.92337,2.50631 -1.38477,5.30404 -1.38477,8.39453 0,3.09049 0.46989,5.89868 1.41211,8.42383 0.96107,2.52515 2.32823,4.68243 4.09961,6.47266 1.79022,1.77137 3.94751,3.14704 6.47266,4.12695 2.52516,0.96107 5.37124,1.44141 8.53711,1.44141 2.82666,0 5.36952,-0.37708 7.63086,-1.13086 2.26133,-0.75378 4.39116,-1.83667 6.38867,-3.25 v -14.21875 h -11.02344 v 1.58398 c 0,0.1696 0.0654,0.31927 0.19727,0.45117 0.15075,0.13192 0.32981,0.19922 0.53711,0.19922 h 7.66015 v 10.76953 c -0.88568,0.5088 -1.76206,0.97019 -2.6289,1.38477 -0.848,0.39573 -1.73288,0.73491 -2.65625,1.01758 -0.90454,0.26382 -1.86522,0.47034 -2.88282,0.62109 -0.99876,0.15076 -2.09209,0.22656 -3.27929,0.22656 -2.7136,0 -5.15516,-0.41498 -7.32227,-1.24414 -2.16711,-0.82915 -4.01266,-2.02576 -5.53906,-3.58984 -1.50755,-1.5641 -2.66625,-3.4665 -3.47656,-5.70899 -0.79147,-2.24248 -1.1875,-4.76834 -1.1875,-7.57617 0,-2.77013 0.39603,-5.26659 1.1875,-7.49023 0.81031,-2.22365 1.95005,-4.1071 3.41992,-5.65235 1.48871,-1.54524 3.27936,-2.73334 5.37109,-3.5625 2.11058,-0.82915 4.46588,-1.24414 7.06641,-1.24414 1.95982,0 3.61781,0.17907 4.97461,0.53711 1.37564,0.35805 2.52584,0.76453 3.44922,1.2168 0.92337,0.45227 1.64813,0.88425 2.17578,1.29883 0.52764,0.41457 0.93218,0.67795 1.21484,0.79101 0.52764,0.24498 0.92368,0.14172 1.1875,-0.31054 l 0.79102,-1.24414 c -0.88569,-0.77263 -1.80847,-1.45099 -2.76953,-2.03516 -0.96107,-0.60303 -1.99756,-1.10231 -3.10938,-1.49805 -1.11183,-0.41457 -2.31692,-0.72435 -3.61719,-0.93164 -1.28142,-0.20729 -2.68649,-0.31055 -4.21289,-0.31055 z m -99.58398,0.45118 v 24.73437 c 0,2.2048 0.34963,4.26732 1.04687,6.18945 0.69725,1.9033 1.69583,3.57174 2.9961,5.00391 1.31911,1.41333 2.91174,2.52562 4.77734,3.33594 1.88444,0.81031 3.99532,1.21484 6.33203,1.21484 2.33672,0 4.43714,-0.40453 6.30274,-1.21484 1.88444,-0.81032 3.47707,-1.92261 4.77734,-3.33594 1.31911,-1.43217 2.32619,-3.10061 3.02344,-5.00391 0.69724,-1.92213 1.04687,-3.98465 1.04687,-6.18945 v -24.73437 h -2.88281 v 24.73437 c 0,1.8656 -0.28428,3.60789 -0.84961,5.22852 -0.54649,1.60177 -1.34706,2.99639 -2.40234,4.18359 -1.0553,1.1872 -2.3447,2.12043 -3.8711,2.79883 -1.50755,0.65956 -3.22239,0.98828 -5.14453,0.98828 -1.92213,0 -3.64743,-0.33918 -5.17383,-1.01758 -1.50755,-0.6784 -2.78845,-1.60967 -3.84375,-2.79687 -1.03644,-1.1872 -1.83701,-2.58182 -2.40234,-4.1836 -0.54649,-1.62062 -0.82031,-3.36487 -0.82031,-5.23047 v -24.70507 z m 40.48437,0 v 39.99804 h 2.54297 v -33.66601 c 0,-0.5088 -0.0274,-1.046 -0.084,-1.61133 l 25.97656,34.71094 c 0.15075,0.20728 0.30237,0.3589 0.45313,0.45312 0.1696,0.0754 0.37611,0.11328 0.62109,0.11328 h 1.35742 v -39.99804 h -2.51562 v 33.55273 c 0,0.5088 0.0274,1.046 0.084,1.61133 l -25.91992,-34.62695 c -0.1696,-0.22614 -0.32972,-0.3673 -0.48047,-0.42383 -0.13191,-0.0754 -0.32993,-0.11328 -0.59375,-0.11328 z" /></g></svg>